University of Chicago Political Science Math Prefresher - 12 Functionals and Optimization
…
[1] "haven_labelled" "vctrs_vctr"     "double"        

haven reads in the Stata metadata and creates a column that has the haven_labelled class, which stores both the numeric labels and the metadata which denotes the mapping between the numeric label and its meaning. We’d like to use this to convert the variables to factors that we can work with in R. To do this, we’ll be using the as_factor() function. This function is “generic” and has a specific implementation for haven_labelled objects in the haven package

head(as_factor(ces$race))

[1] White White White White White Other
10 Levels: White Black Hispanic Asian Native American ... not asked

Or in “tidy” style

ces %>% mutate(race = as_factor(race))

# A tibble: 60,000 × 28
     caseid commonweight commonpostweight gender4 educ    race  hispanic pid3   
      <dbl>        <dbl>            <dbl> <dbl+l> <dbl+l> <fct> <dbl+lb> <dbl+l>
 1   1.98e9        3.65            3.53   1 [Man] 6 [Pos… White 2 [No]   1 [Dem…
 2   1.98e9        0.780           0.819  1 [Man] 3 [Som… White 2 [No]   3 [Ind…
 3   1.98e9        0.892           0.774  2 [Wom… 5 [4-y… White 2 [No]   1 [Dem…
 4   1.98e9        1.10            1.21   3 [Non… 6 [Pos… White 2 [No]   4 [Oth…
 5   1.98e9        0.543           0.328  1 [Man] 6 [Pos… White 2 [No]   3 [Ind…
 6   1.98e9        0.114           0.0989 1 [Man] 5 [4-y… Other 2 [No]   3 [Ind…
 7   1.98e9        0.899           1.21   2 [Wom… 2 [Hig… Black 2 [No]   1 [Dem…
 8   1.98e9        0.633           0.431  1 [Man] 6 [Pos… White 2 [No]   1 [Dem…
 9   1.98e9        0.900           0.854  2 [Wom… 5 [4-y… White 2 [No]   1 [Dem…
10   1.98e9        0.725           0.586  1 [Man] 6 [Pos… White 2 [No]   1 [Dem…
# ℹ 59,990 more rows
# ℹ 20 more variables: pid7 <dbl+lbl>, inputstate <dbl+lbl>,
#   CC22_306 <dbl+lbl>, CC22_320a <dbl+lbl>, CC22_320b <dbl+lbl>,
#   CC22_320c <dbl+lbl>, CC22_320d <dbl+lbl>, CC22_320e <dbl+lbl>,
#   CC22_320f <dbl+lbl>, CC22_320g <dbl+lbl>, CC22_320h <dbl+lbl>,
#   page_CC22_320grid_timing <dbl>, CC22_333 <dbl+lbl>, CC22_333a <dbl+lbl>,
#   CC22_333b <dbl+lbl>, CC22_333c <dbl+lbl>, CC22_333d <dbl+lbl>, …

But we’d like to do this for every column in our dataset (except for columns that are numeric). We could manually go through every single column and convert it to a factor, or we could use some tidyverse tools.

The across() function allows us to select columns using the same custom selection syntax as in select(). We can combine this with the mutate function to mutate every column that we want to transform. Here, we want to select the columns that are of a certain class – the “labelled” class.

ces <- ces %>% mutate(across(where(is.labelled), as_factor))

across(), like select() is very flexible in how columns can be selected. In addition to selecting by number, you can select by partial string match, numerical sequence, or even regular expressions!

Now all of our columns operate correctly as factors.

ces

# A tibble: 60,000 × 28
   caseid commonweight commonpostweight gender4 educ  race  hispanic pid3  pid7 
    <dbl>        <dbl>            <dbl> <fct>   <fct> <fct> <fct>    <fct> <fct>
 1 1.98e9        3.65            3.53   Man     Post… White No       Demo… Stro…
 2 1.98e9        0.780           0.819  Man     Some… White No       Inde… Lean…
 3 1.98e9        0.892           0.774  Woman   4-ye… White No       Demo… Stro…
 4 1.98e9        1.10            1.21   Non-bi… Post… White No       Other Inde…
 5 1.98e9        0.543           0.328  Man     Post… White No       Inde… Inde…
 6 1.98e9        0.114           0.0989 Man     4-ye… Other No       Inde… Inde…
 7 1.98e9        0.899           1.21   Woman   High… Black No       Demo… Not …
 8 1.98e9        0.633           0.431  Man     Post… White No       Demo… Not …
 9 1.98e9        0.900           0.854  Woman   4-ye… White No       Demo… Stro…
10 1.98e9        0.725           0.586  Man     Post… White No       Demo… Not …
# ℹ 59,990 more rows
# ℹ 19 more variables: inputstate <fct>, CC22_306 <fct>, CC22_320a <fct>,
#   CC22_320b <fct>, CC22_320c <fct>, CC22_320d <fct>, CC22_320e <fct>,
#   CC22_320f <fct>, CC22_320g <fct>, CC22_320h <fct>,
#   page_CC22_320grid_timing <dbl>, CC22_333 <fct>, CC22_333a <fct>,
#   CC22_333b <fct>, CC22_333c <fct>, CC22_333d <fct>, CC22_333e <fct>,
#   page_CC22_333_timing <dbl>, page_CC22_333grid_timing <dbl>
…
