University of Chicago Political Science Math Prefresher - 8 Programming: Orientation and Reading in Data11
…
Let’s try it.

library(readxl)
ober <- read_excel("data/input/ober_2018.xlsx")

Review: what does the / mean? Why do we need the data term first? Does the argument need to be in quotes?

8.5.3 Inspecting

For almost any dataset, you usually want to do a couple of standard checks first to understand what you loaded.

ober

# A tibble: 1,035 × 10
   polis_number Name   Latit…¹ Longi…² Helle…³  Fame Size  Colon…⁴ Regime Delian
          <dbl> <chr>    <dbl>   <dbl> <chr>   <dbl> <chr>   <dbl> <chr>  <chr> 
 1            1 Alalie    42.1    9.51 most G…  1.12 100-…       0 <NA>   not i…
 2            2 Empor…    42.1    3.11 most b…  2.12 25-1…       0 <NA>   not i…
 3            3 Massa…    43.3    5.38 most G…  4    25-1…       2 no ev… not i…
 4            4 Rhode     42.3    3.17 most G…  0.87 <NA>        0 <NA>   not i…
 5            5 Abaka…    38.1   15.1  most b…  1    <NA>        0 <NA>   not i…
 6            6 Adran…    37.7   14.8  most G…  1    <NA>        0 <NA>   not i…
 7            7 Agyri…    37.7   14.5  most G…  1.25 <NA>        0 no ev… not i…
 8            8 Aitna     38.2   15.6  most G…  3.25 200-…       1 no ev… not i…
 9            9 Akrag…    37.3   13.6  most G…  6.37 500 …       0 evide… not i…
10           10 Akrai     37.1   14.9  most G…  1.25 <NA>        0 <NA>   not i…
# … with 1,025 more rows, and abbreviated variable names ¹​Latitude, ²​Longitude,
#   ³​Hellenicity, ⁴​Colonies
…
